miniRV/waveform.vcd
$version Generated by VerilatedVcd $end
$timescale 1ps $end
 $scope module TOP $end
  $var wire 1 D reg_reset $end
  $var wire 1 E mem_reset $end
  $var wire 1 F rom_wen $end
  $var wire 32 G rom_wdata [31:0] $end
  $var wire 32 H rom_addr [31:0] $end
  $var wire 1 I clk $end
  $var wire 32 J regs_out[0] [31:0] $end
  $var wire 32 K regs_out[1] [31:0] $end
  $var wire 32 L regs_out[2] [31:0] $end
  $var wire 32 M regs_out[3] [31:0] $end
  $var wire 32 N regs_out[4] [31:0] $end
  $var wire 32 O regs_out[5] [31:0] $end
  $var wire 32 P regs_out[6] [31:0] $end
  $var wire 32 Q regs_out[7] [31:0] $end
  $var wire 32 R regs_out[8] [31:0] $end
  $var wire 32 S regs_out[9] [31:0] $end
  $var wire 32 T regs_out[10] [31:0] $end
  $var wire 32 U regs_out[11] [31:0] $end
  $var wire 32 V regs_out[12] [31:0] $end
  $var wire 32 W regs_out[13] [31:0] $end
  $var wire 32 X regs_out[14] [31:0] $end
  $var wire 32 Y regs_out[15] [31:0] $end
  $var wire 32 Z pc [31:0] $end
  $var wire 1 [ ebreak $end
  $scope module miniRV $end
   $var wire 1 D reg_reset $end
   $var wire 1 E mem_reset $end
   $var wire 1 F rom_wen $end
   $var wire 32 G rom_wdata [31:0] $end
   $var wire 32 H rom_addr [31:0] $end
   $var wire 1 I clk $end
   $var wire 32 J regs_out[0] [31:0] $end
   $var wire 32 K regs_out[1] [31:0] $end
   $var wire 32 L regs_out[2] [31:0] $end
   $var wire 32 M regs_out[3] [31:0] $end
   $var wire 32 N regs_out[4] [31:0] $end
   $var wire 32 O regs_out[5] [31:0] $end
   $var wire 32 P regs_out[6] [31:0] $end
   $var wire 32 Q regs_out[7] [31:0] $end
   $var wire 32 R regs_out[8] [31:0] $end
   $var wire 32 S regs_out[9] [31:0] $end
   $var wire 32 T regs_out[10] [31:0] $end
   $var wire 32 U regs_out[11] [31:0] $end
   $var wire 32 V regs_out[12] [31:0] $end
   $var wire 32 W regs_out[13] [31:0] $end
   $var wire 32 X regs_out[14] [31:0] $end
   $var wire 32 Y regs_out[15] [31:0] $end
   $var wire 32 Z pc [31:0] $end
   $var wire 1 [ ebreak $end
   $var wire 32 # inst [31:0] $end
   $var wire 5 $ dec_rd [4:0] $end
   $var wire 5 % dec_rs1 [4:0] $end
   $var wire 5 & dec_rs2 [4:0] $end
   $var wire 32 ' dec_imm [31:0] $end
   $var wire 1 ( dec_wen $end
   $var wire 7 ) dec_opcode [6:0] $end
   $var wire 3 * dec_funct3 [2:0] $end
   $var wire 1 \ is_pc_jump $end
   $var wire 32 ] pc_addr [31:0] $end
   $var wire 32 + rdata1 [31:0] $end
   $var wire 32 , rdata2 [31:0] $end
   $var wire 32 - alu_res [31:0] $end
   $var wire 32 ^ wdata [31:0] $end
   $var wire 1 _ ram_wen $end
   $var wire 32 ` ram_addr [31:0] $end
   $var wire 32 a ram_wdata [31:0] $end
   $var wire 32 b ram_rdata [31:0] $end
   $var wire 4 c ram_wstrb [3:0] $end
   $scope module u_alu $end
    $var wire 7 ) opcode [6:0] $end
    $var wire 32 + rdata1 [31:0] $end
    $var wire 32 , rdata2 [31:0] $end
    $var wire 32 ' imm [31:0] $end
    $var wire 32 - rout [31:0] $end
   $upscope $end
   $scope module u_dec $end
    $var wire 32 # inst [31:0] $end
    $var wire 5 $ rd [4:0] $end
    $var wire 5 % rs1 [4:0] $end
    $var wire 5 & rs2 [4:0] $end
    $var wire 7 ) opcode [6:0] $end
    $var wire 3 * funct3 [2:0] $end
    $var wire 1 ( wen $end
    $var wire 32 ' imm [31:0] $end
    $var wire 1 . sign $end
   $upscope $end
   $scope module u_pc $end
    $var wire 32 j INITIAL_PC [31:0] $end
    $var wire 1 I clk $end
    $var wire 1 D reset $end
    $var wire 32 ] in_addr [31:0] $end
    $var wire 1 \ is_addr $end
    $var wire 32 Z out_addr [31:0] $end
    $var wire 32 / next_addr [31:0] $end
   $upscope $end
   $scope module u_ram $end
    $var wire 1 I clk $end
    $var wire 1 E reset $end
    $var wire 1 _ wen $end
    $var wire 32 a wdata [31:0] $end
    $var wire 4 c wstrb [3:0] $end
    $var wire 32 ` addr [31:0] $end
    $var wire 32 b read_data [31:0] $end
    $var wire 32 d sv_mem_read__Vstatic__result [31:0] $end
    $var wire 64 e sv_mem_ptr__Vstatic__mem_ptr_out [63:0] $end
    $var wire 64 g sv_vga_ptr__Vstatic__vga_ptr_out [63:0] $end
   $upscope $end
   $scope module u_rf $end
    $var wire 1 I clk $end
    $var wire 1 D reset $end
    $var wire 1 ( wen $end
    $var wire 5 $ rd [4:0] $end
    $var wire 5 % rs1 [4:0] $end
    $var wire 5 & rs2 [4:0] $end
    $var wire 32 ^ wdata [31:0] $end
    $var wire 32 J regs_out[0] [31:0] $end
    $var wire 32 K regs_out[1] [31:0] $end
    $var wire 32 L regs_out[2] [31:0] $end
    $var wire 32 M regs_out[3] [31:0] $end
    $var wire 32 N regs_out[4] [31:0] $end
    $var wire 32 O regs_out[5] [31:0] $end
    $var wire 32 P regs_out[6] [31:0] $end
    $var wire 32 Q regs_out[7] [31:0] $end
    $var wire 32 R regs_out[8] [31:0] $end
    $var wire 32 S regs_out[9] [31:0] $end
    $var wire 32 T regs_out[10] [31:0] $end
    $var wire 32 U regs_out[11] [31:0] $end
    $var wire 32 V regs_out[12] [31:0] $end
    $var wire 32 W regs_out[13] [31:0] $end
    $var wire 32 X regs_out[14] [31:0] $end
    $var wire 32 Y regs_out[15] [31:0] $end
    $var wire 32 + rdata1 [31:0] $end
    $var wire 32 , rdata2 [31:0] $end
    $var wire 32 0 regs[0] [31:0] $end
    $var wire 32 1 regs[1] [31:0] $end
    $var wire 32 2 regs[2] [31:0] $end
    $var wire 32 3 regs[3] [31:0] $end
    $var wire 32 4 regs[4] [31:0] $end
    $var wire 32 5 regs[5] [31:0] $end
    $var wire 32 6 regs[6] [31:0] $end
    $var wire 32 7 regs[7] [31:0] $end
    $var wire 32 8 regs[8] [31:0] $end
    $var wire 32 9 regs[9] [31:0] $end
    $var wire 32 : regs[10] [31:0] $end
    $var wire 32 ; regs[11] [31:0] $end
    $var wire 32 < regs[12] [31:0] $end
    $var wire 32 = regs[13] [31:0] $end
    $var wire 32 > regs[14] [31:0] $end
    $var wire 32 ? regs[15] [31:0] $end
    $var wire 4 @ trunc_rd [3:0] $end
    $var wire 4 A trunc_rs1 [3:0] $end
    $var wire 4 B trunc_rs2 [3:0] $end
    $var wire 32 C i [31:0] $end
    $var wire 32 k j [31:0] $end
   $upscope $end
   $scope module u_rom $end
    $var wire 32 Z addr [31:0] $end
    $var wire 32 # read_data [31:0] $end
    $var wire 32 i sv_rom_read__Vstatic__result [31:0] $end
   $upscope $end
  $upscope $end
 $upscope $end
 $var wire 32 l gm.pc [31:0] $end
 $var wire 32 m gm.x0 [31:0] $end
 $var wire 32 n gm.x1 [31:0] $end
 $var wire 32 o gm.x2 [31:0] $end
 $var wire 32 p gm.x3 [31:0] $end
 $var wire 32 q gm.x4 [31:0] $end
 $var wire 32 r gm.x5 [31:0] $end
 $var wire 32 s gm.x6 [31:0] $end
 $var wire 32 t gm.x7 [31:0] $end
 $var wire 32 u gm.x8 [31:0] $end
 $var wire 32 v gm.x9 [31:0] $end
 $var wire 32 w gm.x10 [31:0] $end
 $var wire 32 x gm.x11 [31:0] $end
 $var wire 32 y gm.x12 [31:0] $end
 $var wire 32 z gm.x13 [31:0] $end
 $var wire 32 { gm.x14 [31:0] $end
 $var wire 32 | gm.x15 [31:0] $end
$enddefinitions $end


#0
b00000000000000000000010000010011 #
b01000 $
b00000 %
b00000 &
b00000000000000000000000000000000 '
1(
b0010011 )
b000 *
b00000000000000000000000000000000 +
b00000000000000000000000000000000 ,
b00000000000000000000000000000000 -
0.
b10000000000000000000000000000000 /
b00000000000000000000000000000000 0
b00000000000000000000000000000000 1
b00000000000000000000000000000000 2
b00000000000000000000000000000000 3
b00000000000000000000000000000000 4
b00000000000000000000000000000000 5
b00000000000000000000000000000000 6
b00000000000000000000000000000000 7
b00000000000000000000000000000000 8
b00000000000000000000000000000000 9
b00000000000000000000000000000000 :
b00000000000000000000000000000000 ;
b00000000000000000000000000000000 <
b00000000000000000000000000000000 =
b00000000000000000000000000000000 >
b00000000000000000000000000000000 ?
b1000 @
b0000 A
b0000 B
b00000000000000000000000000010000 C
0D
0E
0F
b00000000000000000000000000000000 G
b10000000000000000000001000111100 H
0I
b00000000000000000000000000000000 J
b00000000000000000000000000000000 K
b00000000000000000000000000000000 L
b00000000000000000000000000000000 M
b00000000000000000000000000000000 N
b00000000000000000000000000000000 O
b00000000000000000000000000000000 P
b00000000000000000000000000000000 Q
b00000000000000000000000000000000 R
b00000000000000000000000000000000 S
b00000000000000000000000000000000 T
b00000000000000000000000000000000 U
b00000000000000000000000000000000 V
b00000000000000000000000000000000 W
b00000000000000000000000000000000 X
b00000000000000000000000000000000 Y
b10000000000000000000000000000000 Z
0[
0\
b00000000000000000000000000000000 ]
b00000000000000000000000000000000 ^
0_
b00000000000000000000000000000000 `
b00000000000000000000000000000000 a
b00000000000000000000000000000000 b
b0000 c
b00000000000000000000000000000000 d
b0000000000000000010101100000110100001110101011000010010100100000 e
b0000000000000000010101100000110100001110101010000010010100100000 g
b00000000000000000000000000000000 i
b10000000000000000000000000000000 m
b00000000000000000000000000000000 n
b00000000000000000000000000000000 o
b00000000000000000000000000000000 p
b00000000000000000000000000000000 q
b00000000000000000000000000000000 r
b00000000000000000000000000000000 s
b00000000000000000000000000000000 t
b00000000000000000000000000000000 u
b00000000000000000000000000000000 v
b00000000000000000000000000000000 w
b00000000000000000000000000000000 x
b00000000000000000000000000000000 y
b00000000000000000000000000000000 z
b00000000000000000000000000000000 {
b00000000000000000000000000000000 |
b00000000000000000000000000000000b10000000000000000000000000000000 j
b00000000000000000000000000010000 k
#1
b10000000000000001001000100110111 #
b00010 $
b00001 %
b10000000000000001001000000000000 '
b0110111 )
b001 *
1.
b10000000000000000000000000000100 /
b0010 @
b0001 A
1I
b10000000000000000000000000000100 Z
b10000000000000001001000000000000 ^
b10000000000000000000000000000100 l
b00000000000000000000000000000000 m
#2
0I
#3
b00000000000000010000000100010011 #
b00010 %
b00000000000000000000000000000000 '
b0010011 )
b000 *
b10000000000000001001000000000000 +
b10000000000000001001000000000000 -
0.
b10000000000000000000000000001000 /
b10000000000000001001000000000000 2
b0010 A
1I
b10000000000000001001000000000000 L
b10000000000000000000000000001000 Z
b10000000000000000000000000001000 l
b10000000000000001001000000000000 o
#4
0I
#5
b10000000000000000000000010110111 #
b00001 $
b00000 %
b10000000000000000000000000000000 '
b0110111 )
b00000000000000000000000000000000 +
b00000000000000000000000000000000 -
1.
b10000000000000000000000000001100 /
b0001 @
b0000 A
1I
b10000000000000000000000000001100 Z
b10000000000000000000000000000000 ^
b10000000000000000000000000001100 l
#6
0I
#7
b00000010000000001000000010010011 #
b00001 %
b00000000000000000000000000100000 '
b0010011 )
b10000000000000000000000000000000 +
b10000000000000000000000000100000 -
0.
b10000000000000000000000000010000 /
b10000000000000000000000000000000 1
b0001 A
1I
b10000000000000000000000000000000 K
b10000000000000000000000000010000 Z
b10000000000000000000000000100000 ^
b10000000000000000000000000010000 l
b10000000000000000000000000000000 n
#8
0I
#9
b00000000000000001000000011100111 #
b00000000000000000000000000000000 '
b1100111 )
b10000000000000000000000000100000 +
b00000000000000000000000000000000 -
b10000000000000000000000000010100 /
b10000000000000000000000000100000 1
1I
b10000000000000000000000000100000 K
b10000000000000000000000000010100 Z
1\
b10000000000000000000000000100000 ]
b10000000000000000000000000011000 ^
b10000000000000000000000000010100 l
b10000000000000000000000000100000 n
#10
0I
#11
b11111111110000010000000100010011 #
b00010 $
b00010 %
b11100 &
b11111111111111111111111111111100 '
b0010011 )
b10000000000000001001000000000000 +
b10000000000000001000111111111100 -
1.
b10000000000000000000000000100000 /
b10000000000000000000000000011000 1
b0010 @
b0010 A
b1100 B
1I
b10000000000000000000000000011000 K
b10000000000000000000000000100000 Z
0\
b00000000000000000000000000000000 ]
b10000000000000001000111111111100 ^
b10000000000000000000000000100000 l
b10000000000000000000000000011000 n
#12
0I
#13
b10000000000000000000010100110111 #
b01010 $
b00000 %
b00000 &
b10000000000000000000000000000000 '
b0110111 )
b00000000000000000000000000000000 +
b00000000000000000000000000000000 -
b10000000000000000000000000100100 /
b10000000000000001000111111111100 2
b1010 @
b0000 A
b0000 B
1I
b10000000000000001000111111111100 L
b10000000000000000000000000100100 Z
b10000000000000000000000000000000 ^
b10000000000000000000000000100100 l
b10000000000000001000111111111100 o
#14
0I
#15
b00000101000001010000010100010011 #
b01010 %
b10000 &
b00000000000000000000000001010000 '
b0010011 )
b10000000000000000000000000000000 +
b10000000000000000000000001010000 -
0.
b10000000000000000000000000101000 /
b10000000000000000000000000000000 :
b1010 A
1I
b10000000000000000000000000000000 T
b10000000000000000000000000101000 Z
b10000000000000000000000001010000 ^
b10000000000000000000000000101000 l
b10000000000000000000000000000000 w
#16
0I
#17
b00000000000100010010000000100011 #
b00000 $
b00010 %
b00001 &
b00000000000000000000000000000000 '
0(
b0100011 )
b010 *
b10000000000000001000111111111100 +
b10000000000000000000000000011000 ,
b00000000000000000000000000000000 -
b10000000000000000000000000101100 /
b10000000000000000000000001010000 :
b0000 @
b0010 A
b0001 B
1I
b10000000000000000000000001010000 T
b10000000000000000000000000101100 Z
b00000000000000000000000000000000 ^
1_
b10000000000000001000111111111100 `
b10000000000000000000000000011000 a
b1111 c
b10000000000000000000000000101100 l
b10000000000000000000000001010000 w
#18
0I
#19
b10000000000000000000000010110111 #
b00001 $
b00000 %
b00000 &
b10000000000000000000000000000000 '
1(
b0110111 )
b000 *
b00000000000000000000000000000000 +
b00000000000000000000000000000000 ,
1.
b10000000000000000000000000110000 /
b0001 @
b0000 A
b0000 B
1I
b10000000000000000000000000110000 Z
b10000000000000000000000000000000 ^
0_
b00000000000000000000000000000000 `
b00000000000000000000000000000000 a
b0000 c
b10000000000000000000000000110000 l
#20
0I
#21
b00000001100000001000000010010011 #
b00001 %
b11000 &
b00000000000000000000000000011000 '
b0010011 )
b10000000000000000000000000000000 +
b10000000000000000000000000011000 -
0.
b10000000000000000000000000110100 /
b10000000000000000000000000000000 1
b0001 A
b1000 B
1I
b10000000000000000000000000000000 K
b10000000000000000000000000110100 Z
b10000000000000000000000000011000 ^
b10000000000000000000000000110100 l
b10000000000000000000000000000000 n
#22
0I
#23
b00000000000000001000000011100111 #
b00000 &
b00000000000000000000000000000000 '
b1100111 )
b10000000000000000000000000011000 +
b00000000000000000000000000000000 -
b10000000000000000000000000111000 /
b10000000000000000000000000011000 1
b0000 B
1I
b10000000000000000000000000011000 K
b10000000000000000000000000111000 Z
1\
b10000000000000000000000000011000 ]
b10000000000000000000000000111100 ^
b10000000000000000000000000111000 l
b10000000000000000000000000011000 n
#24
0I
#25
b00000000000000000000010100010011 #
b01010 $
b00000 %
b0010011 )
b00000000000000000000000000000000 +
b10000000000000000000000000011000 /
b10000000000000000000000000111100 1
b1010 @
b0000 A
1I
b10000000000000000000000000111100 K
b10000000000000000000000000011000 Z
0\
b00000000000000000000000000000000 ]
b00000000000000000000000000000000 ^
b10000000000000000000000000011000 l
b10000000000000000000000000111100 n
#26
0I
#27
b00000000000000001000000001100111 #
b00000 $
b00001 %
b1100111 )
b10000000000000000000000000111100 +
b10000000000000000000000000011100 /
b00000000000000000000000000000000 :
b0000 @
b0001 A
1I
b00000000000000000000000000000000 T
b10000000000000000000000000011100 Z
1\
b10000000000000000000000000111100 ]
b10000000000000000000000000100000 ^
b10000000000000000000000000011100 l
b00000000000000000000000000000000 w
#28
0I
#29
b00000000000001010000010100010011 #
b01010 $
b01010 %
b0010011 )
b00000000000000000000000000000000 +
b10000000000000000000000000111100 /
b1010 @
b1010 A
1I
b10000000000000000000000000111100 Z
0\
b00000000000000000000000000000000 ]
b00000000000000000000000000000000 ^
b10000000000000000000000000111100 l
#30
0I
#31
b00000000000100000000000001110011 #
b00000 $
b00000 %
b00001 &
b00000000000000000000000000000001 '
0(
b1110011 )
b10000000000000000000000000111100 ,
b10000000000000000000000001000000 /
b0000 @
b0000 A
b0001 B
1I
b10000000000000000000000001000000 Z
1[
b10000000000000000000000001000000 l
